{
  "project_info": {
    "project_number": "552860864364",
    "firebase_url": "https://vlatamtienda.firebaseio.com",
    "project_id": "vlatamtienda",
    "storage_bucket": "vlatamtienda.appspot.com"
  },
  "client": [
    {
      "client_info": {
        "mobilesdk_app_id": "1:552860864364:android:5aa72798d71a0f2b",
        "android_client_info": {
          "package_name": "com.vlatam.vlatamtienda"
        }
      },
      "oauth_client": [
        {
          "client_id": "552860864364-jk5kncp8qa0k1jh8aehbn2ninnovjv4p.apps.googleusercontent.com",
          "client_type": 1,
          "android_info": {
            "package_name": "com.vlatam.vlatamtienda",
            "certificate_hash": "bfb009f70401b63475238bd459d67b0387e2af4e"
          }
        },
        {
          "client_id": "552860864364-vkcjbul0ra2au1hll3037kkopmaqitde.apps.googleusercontent.com",
          "client_type": 3
        }
      ],
      "api_key": [
        {
          "current_key": "AIzaSyDJPnUbOej1OTfZLyi9Vc_H_f8vcR7Nx0I"
        }
      ],
      "services": {
        "analytics_service": {
          "status": 1
        },
        "appinvite_service": {
          "status": 2,
          "other_platform_oauth_client": [
            {
              "client_id": "552860864364-vkcjbul0ra2au1hll3037kkopmaqitde.apps.googleusercontent.com",
              "client_type": 3
            }
          ]
        },
        "ads_service": {
          "status": 2
        }
      }
    }
  ],
  "configuration_version": "1"
}